Classification
…
---

# Evaluating Predictions

```r
ad %>%
  mutate(preds = predict(mLM)) %>%
  mutate(predBinary = ifelse(preds > .5,1,0)) %>%
  select(yield,predBinary,preds)
```

```
## # A tibble: 2,150 × 3
##    yield predBinary preds
##    <int>      <dbl> <dbl>
##  1     1          1 0.735
##  2     1          1 1.07 
##  3     1          0 0.245
##  4     0          1 0.683
##  5     1          1 0.589
##  6     0          0 0.358
##  7     1          1 0.559
##  8     1          1 0.757
##  9     0          0 0.366
## 10     0          1 0.698
## # … with 2,140 more rows
```
…
