College Admissions, Parts 1 & 2
…
To evaluate our model, we traditionally have relied on RMSE. However,
this is less appropriate when using a binary dependent variable.
Instead, we want to think about accuracy. Let’s start
by getting the predictions, as always.

ad_analysis <- ad_analysis %>%
  mutate(preds = predict(m)) %>%
  mutate(errors = yield - preds)

Let’s take a look at these predictions

ad_analysis %>% select(yield,preds)

## # A tibble: 2,150 × 2
##    yield preds
##    <int> <dbl>
##  1     1 0.735
##  2     1 1.07 
##  3     1 0.245
##  4     0 0.683
##  5     1 0.589
##  6     0 0.358
##  7     1 0.559
##  8     1 0.757
##  9     0 0.366
## 10     0 0.698
## # … with 2,140 more rows

So these are probabilities. To complete the classification problem,
we need to assign group labels to each case in the testing dataset.
Let’s assume that a probability equal to or greater than .5 will be
classified as a 1 and everything else as a 0.

ad_analysis<-ad_analysis%>%
  mutate(pred_attend=ifelse(preds>=.5,1,0))

ad_analysis%>%select(yield,preds,pred_attend)

## # A tibble: 2,150 × 3
##    yield preds pred_attend
##    <int> <dbl>       <dbl>
##  1     1 0.735           1
##  2     1 1.07            1
##  3     1 0.245           0
##  4     0 0.683           1
##  5     1 0.589           1
##  6     0 0.358           0
##  7     1 0.559           1
##  8     1 0.757           1
##  9     0 0.366           0
## 10     0 0.698           1
## # … with 2,140 more rows

Here’s the problem with using a linear regression in this case:
there’s no guarantee that the results will be on the probability scale.
So, we can find cases where our model predicted probabilities below 0 or
above 1. Of course, these just get labeled as 1 or 0.

ad_analysis%>%
  filter(preds>1|preds<0)%>%
  select(yield,preds,pred_attend)

## # A tibble: 128 × 3
##    yield preds pred_attend
##    <int> <dbl>       <dbl>
##  1     1  1.07           1
##  2     1  1.06           1
##  3     1  1.02           1
##  4     1  1.10           1
##  5     1  1.03           1
##  6     1  1.12           1
##  7     1  1.18           1
##  8     1  1.49           1
##  9     1  1.15           1
## 10     1  1.11           1
## # … with 118 more rows
…
