Advanced Topics in R
…
```r
require(tidyverse)
require(maps)
require(mapproj)

# Load dataset included in maps package
states48 <- map_data('state')

states48 %>%
  as_tibble()
```

```
## # A tibble: 15,537 × 6
##     long   lat group order region  subregion
##    <dbl> <dbl> <dbl> <int> <chr>   <chr>    
##  1 -87.5  30.4     1     1 alabama <NA>     
##  2 -87.5  30.4     1     2 alabama <NA>     
##  3 -87.5  30.4     1     3 alabama <NA>     
##  4 -87.5  30.3     1     4 alabama <NA>     
##  5 -87.6  30.3     1     5 alabama <NA>     
##  6 -87.6  30.3     1     6 alabama <NA>     
##  7 -87.6  30.3     1     7 alabama <NA>     
##  8 -87.6  30.3     1     8 alabama <NA>     
##  9 -87.7  30.3     1     9 alabama <NA>     
## 10 -87.8  30.3     1    10 alabama <NA>     
## # … with 15,527 more rows
```
…
