Text, Tweets, and Sentiment
…
# Odds Step 1

```r
(odds1 <- tweet_words %>%
  count(word, PostPresident) %>%
  filter(sum(n) >= 5) %>%
  spread(PostPresident, n, fill = 0) %>%
  ungroup() %>%
  mutate(totFALSE = sum(`FALSE`),
         totTRUE = sum(`TRUE`)))
```

```
## # A tibble: 23,453 × 5
##    word      `FALSE` `TRUE` totFALSE totTRUE
##    <chr>       <dbl>  <dbl>    <dbl>   <dbl>
##  1 aa              1      0   183927  114138
##  2 aaa            11      1   183927  114138
##  3 aand            0      1   183927  114138
##  4 aaron           2      0   183927  114138
##  5 aarons          1      0   183927  114138
##  6 ab              1      0   183927  114138
##  7 abandon         6      4   183927  114138
##  8 abandoned      15      8   183927  114138
##  9 abbas           0      2   183927  114138
## 10 abbott          1      1   183927  114138
## # … with 23,443 more rows
```

---

# Odds Step 2

```r
(odds2 <- odds1 %>%
  mutate(propFALSE = (`FALSE` + 1) / (totFALSE + 1),
         propTRUE = (`TRUE` + 1) / (totTRUE + 1)))
```

```
## # A tibble: 23,453 × 7
##    word      `FALSE` `TRUE` totFALSE totTRUE propF…¹ propT…²
##    <chr>       <dbl>  <dbl>    <dbl>   <dbl>   <dbl>   <dbl>
##  1 aa              1      0   183927  114138 1.09e-5 8.76e-6
##  2 aaa            11      1   183927  114138 6.52e-5 1.75e-5
##  3 aand            0      1   183927  114138 5.44e-6 1.75e-5
##  4 aaron           2      0   183927  114138 1.63e-5 8.76e-6
##  5 aarons          1      0   183927  114138 1.09e-5 8.76e-6
##  6 ab              1      0   183927  114138 1.09e-5 8.76e-6
##  7 abandon         6      4   183927  114138 3.81e-5 4.38e-5
##  8 abandoned      15      8   183927  114138 8.70e-5 7.89e-5
##  9 abbas           0      2   183927  114138 5.44e-6 2.63e-5
## 10 abbott          1      1   183927  114138 1.09e-5 1.75e-5
## # … with 23,443 more rows, and abbreviated variable names
## #   ¹​propFALSE, ²​propTRUE
```

---

# Odds Step 3

```r
(odds3 <- odds2 %>%
  mutate(odds = propTRUE / propFALSE))
```

```
## # A tibble: 23,453 × 8
##    word      `FALSE` `TRUE` totFALSE totTRUE propF…¹ propT…²
##    <chr>       <dbl>  <dbl>    <dbl>   <dbl>   <dbl>   <dbl>
##  1 aa              1      0   183927  114138 1.09e-5 8.76e-6
##  2 aaa            11      1   183927  114138 6.52e-5 1.75e-5
##  3 aand            0      1   183927  114138 5.44e-6 1.75e-5
##  4 aaron           2      0   183927  114138 1.63e-5 8.76e-6
##  5 aarons          1      0   183927  114138 1.09e-5 8.76e-6
##  6 ab              1      0   183927  114138 1.09e-5 8.76e-6
##  7 abandon         6      4   183927  114138 3.81e-5 4.38e-5
##  8 abandoned      15      8   183927  114138 8.70e-5 7.89e-5
##  9 abbas           0      2   183927  114138 5.44e-6 2.63e-5
## 10 abbott          1      1   183927  114138 1.09e-5 1.75e-5
## # … with 23,443 more rows, 1 more variable: odds <dbl>, and
## #   abbreviated variable names ¹​propFALSE, ²​propTRUE
```
…
<img src="Clustering_part3_slides_files/figure-html/unnamed-chunk-7-1.png" style="display: block; margin: auto;" />

---

# Odds Step 4

```r
(prepost_logodds <- odds3 %>%
  mutate(logodds = log(odds)))
```

```
## # A tibble: 23,453 × 9
##    word      `FALSE` `TRUE` totFALSE totTRUE propF…¹ propT…²
##    <chr>       <dbl>  <dbl>    <dbl>   <dbl>   <dbl>   <dbl>
##  1 aa              1      0   183927  114138 1.09e-5 8.76e-6
##  2 aaa            11      1   183927  114138 6.52e-5 1.75e-5
##  3 aand            0      1   183927  114138 5.44e-6 1.75e-5
##  4 aaron           2      0   183927  114138 1.63e-5 8.76e-6
##  5 aarons          1      0   183927  114138 1.09e-5 8.76e-6
##  6 ab              1      0   183927  114138 1.09e-5 8.76e-6
##  7 abandon         6      4   183927  114138 3.81e-5 4.38e-5
##  8 abandoned      15      8   183927  114138 8.70e-5 7.89e-5
##  9 abbas           0      2   183927  114138 5.44e-6 2.63e-5
## 10 abbott          1      1   183927  114138 1.09e-5 1.75e-5
## # … with 23,443 more rows, 2 more variables: odds <dbl>,
## #   logodds <dbl>, and abbreviated variable names
## #   ¹​propFALSE, ²​propTRUE
```
…
---

# Meaning

```r
nrc
```

```
## # A tibble: 13,901 × 2
##    word        sentiment
##    <chr>       <chr>    
##  1 abacus      trust    
##  2 abandon     fear     
##  3 abandon     negative 
##  4 abandon     sadness  
##  5 abandoned   anger    
##  6 abandoned   fear     
##  7 abandoned   negative 
##  8 abandoned   sadness  
##  9 abandonment anger    
## 10 abandonment fear     
## # … with 13,891 more rows
```
…
---

# Sentiment overall

```r
tweet_sentiment_summary
```

```
## # A tibble: 33,480 × 13
## # Groups:   PostPresident [2]
##    PostP…¹ docum…² anger antic…³ disgust  fear   joy negat…⁴
##    <lgl>     <dbl> <int>   <int>   <int> <int> <int>   <int>
##  1 FALSE    1.70e9     1       3       1     0     2       1
##  2 FALSE    1.74e9     1       1       1     0     1       1
##  3 FALSE    1.92e9     1       1       0     0     1       1
##  4 FALSE    2.05e9     1       0       0     0     0       1
##  5 FALSE    2.32e9     1       0       0     1     0       1
##  6 FALSE    2.35e9     2       1       1     2     1       2
##  7 FALSE    2.40e9     1       2       1     2     1       0
##  8 FALSE    3.69e9     1       0       1     1     0       2
##  9 FALSE    7.68e9     1       1       1     0     2       2
## 10 FALSE    8.08e9     1       1       1     0     1       1
## # … with 33,470 more rows, 5 more variables:
## #   positive <int>, sadness <int>, surprise <int>,
## #   trust <int>, sentiment <int>, and abbreviated variable
## #   names ¹​PostPresident, ²​document, ³​anticipation,
## #   ⁴​negative
```
…
