Clustering
…
---

# What does Trump tweet about?

```r
counts
```

```
## # A tibble: 23,453 × 2
##    word          n
##    <chr>     <int>
##  1 trump      5010
##  2 president  2766
##  3 people     2465
##  4 donald     1833
##  5 country    1788
##  6 america    1627
##  7 time       1540
##  8 obama      1440
##  9 dont       1434
## 10 run        1152
## # … with 23,443 more rows
```
…
---

# Looking at Clusters

- Some quick wrangling

```r
km_out_tidy <- tidy(km_out) %>%
  gather(word,mean_tfidf,-size,-cluster,-withinss) %>% # Convert to long data
  mutate(mean_tfidf = as.numeric(mean_tfidf)) # Calculate average TF-IDF
km_out_tidy
```

```
## # A tibble: 118,350 × 5
##     size withinss cluster word       mean_tfidf
##    <int>    <dbl> <fct>   <chr>           <dbl>
##  1     1     0    1       apprentice   0       
##  2    63    44.5  2       apprentice   0       
##  3  1076   289.   3       apprentice   0.000296
##  4     3     4.75 4       apprentice   0       
##  5   163    53.1  5       apprentice   0.00394 
##  6     1     0    6       apprentice   0       
##  7     3     5.18 7       apprentice   0       
##  8    15     8.41 8       apprentice   0.0193  
##  9     4    12.0  9       apprentice   0       
## 10    18    20.9  10      apprentice   0.0365  
## # … with 118,340 more rows
```
…
